<?xml version="1.0" encoding="utf-8"?>
<!-- Generated by IcoMoon.io -->
<!DOCTYPE svg PUBLIC "-//W3C//DTD SVG 1.1//EN" "http://www.w3.org/Graphics/SVG/1.1/DTD/svg11.dtd">
<svg version="1.1" xmlns="http://www.w3.org/2000/svg" xmlns:xlink="http://www.w3.org/1999/xlink" width="32" height="32" viewBox="0 0 32 32">
<g id="icomoon-ignore">
</g>
<path d="M20.001 6h-10.001v6h10.001v-6zM18 10.542h-6v-1.114h6v1.114zM18 7.438v1.115h-6v-1.115h6zM0 0.001h2v32.011h-2v-32.011zM4.001 32h21.999l0.001-32h-22v32zM8 4l14.001 0.001-0.001 10.009h-14v-10.010zM28 2h2v6h-2v-6zM28 10h2v6h-2v-6z" fill="#000000"></path>
</svg>
